<?xml version="1.0" encoding="utf-8"?>
<!-- Generator: Adobe Illustrator 16.0.0, SVG Export Plug-In . SVG Version: 6.00 Build 0)  -->
<!DOCTYPE svg PUBLIC "-//W3C//DTD SVG 1.1//EN" "http://www.w3.org/Graphics/SVG/1.1/DTD/svg11.dtd">
<svg version="1.1" id="Calque_1" xmlns="http://www.w3.org/2000/svg" xmlns:xlink="http://www.w3.org/1999/xlink" x="0px" y="0px"
	 width="9px" height="13.201px" viewBox="0 0 9 13.201" enable-background="new 0 0 9 13.201" xml:space="preserve">
<g>
	<path fill-rule="evenodd" clip-rule="evenodd" fill="#D5B045" d="M4.5,0C1.488,0,0,2.098,0,4.688s4.5,8.514,4.5,8.514
		S9,7.277,9,4.688S7.512,0,4.5,0L4.5,0z M4.5,6.299c-1.325,0-2.399-1.072-2.399-2.399C2.101,2.575,3.175,1.5,4.5,1.5
		c1.324,0,2.399,1.075,2.399,2.399C6.899,5.227,5.824,6.299,4.5,6.299L4.5,6.299z M4.5,6.299"/>
</g>
</svg>
